…
These data are not “tidy” as they now stand; route number and route
should both be variables. That is, we would need to change “route”
variables from wide to long format in order to have a clean dataset.
\### Answer Questions

``` r
nyc_mta %>% 
  select(station_name, line) %>% 
  distinct
## # A tibble: 465 × 2
##    station_name             line    
##    <chr>                    <chr>   
##  1 25th St                  4 Avenue
##  2 36th St                  4 Avenue
##  3 45th St                  4 Avenue
##  4 53rd St                  4 Avenue
##  5 59th St                  4 Avenue
##  6 77th St                  4 Avenue
##  7 86th St                  4 Avenue
##  8 95th St                  4 Avenue
##  9 9th St                   4 Avenue
## 10 Atlantic Av-Barclays Ctr 4 Avenue
## # … with 455 more rows

nyc_mta %>% 
  filter(ADA_compliance == TRUE) %>% 
  select(station_name, line) %>% 
  distinct
## # A tibble: 84 × 2
##    station_name                   line           
##    <chr>                          <chr>          
##  1 Atlantic Av-Barclays Ctr       4 Avenue       
##  2 DeKalb Av                      4 Avenue       
##  3 Pacific St                     4 Avenue       
##  4 Grand Central                  42nd St Shuttle
##  5 34th St                        6 Avenue       
##  6 47-50th Sts Rockefeller Center 6 Avenue       
##  7 Church Av                      6 Avenue       
##  8 21st St                        63rd Street    
##  9 Lexington Av                   63rd Street    
## 10 Roosevelt Island               63rd Street    
## # … with 74 more rows
```
…
``` r
nyc_mta %>% 
  pivot_longer(
    route1:route11,
    names_to = "route_num",
    values_to = "route") %>% 
  filter(route == "A") %>% 
  select(station_name, line) %>% 
  distinct
## # A tibble: 60 × 2
##    station_name                  line           
##    <chr>                         <chr>          
##  1 Times Square                  42nd St Shuttle
##  2 125th St                      8 Avenue       
##  3 145th St                      8 Avenue       
##  4 14th St                       8 Avenue       
##  5 168th St - Washington Heights 8 Avenue       
##  6 175th St                      8 Avenue       
##  7 181st St                      8 Avenue       
##  8 190th St                      8 Avenue       
##  9 34th St                       8 Avenue       
## 10 42nd St                       8 Avenue       
## # … with 50 more rows
…
## Problem 2

### Load/Clean Data

``` r
mr_trash_wheel = 
  readxl::read_excel("./data/Trash Wheel Collection Data.xlsx",
             sheet = "Mr. Trash Wheel", range = "A2:N550") %>%
    janitor::clean_names() %>%
  filter(dumpster >= 1) %>% 
  mutate(sports_balls = as.integer(sports_balls)) %>%
  mutate(trash_wheel_source = "Mr.")

mr_trash_wheel
## # A tibble: 547 × 15
##    dumpster month year  date                weight_tons volume…¹ plast…² polys…³
##       <dbl> <chr> <chr> <dttm>                    <dbl>    <dbl>   <dbl>   <dbl>
##  1        1 May   2014  2014-05-16 00:00:00        4.31       18    1450    1820
##  2        2 May   2014  2014-05-16 00:00:00        2.74       13    1120    1030
##  3        3 May   2014  2014-05-16 00:00:00        3.45       15    2450    3100
##  4        4 May   2014  2014-05-17 00:00:00        3.1        15    2380    2730
##  5        5 May   2014  2014-05-17 00:00:00        4.06       18     980     870
##  6        6 May   2014  2014-05-20 00:00:00        2.71       13    1430    2140
##  7        7 May   2014  2014-05-21 00:00:00        1.91        8     910    1090
##  8        8 May   2014  2014-05-28 00:00:00        3.7        16    3580    4310
##  9        9 June  2014  2014-06-05 00:00:00        2.52       14    2400    2790
## 10       10 June  2014  2014-06-11 00:00:00        3.76       18    1340    1730
## # … with 537 more rows, 7 more variables: cigarette_butts <dbl>,
## #   glass_bottles <dbl>, grocery_bags <dbl>, chip_bags <dbl>,
## #   sports_balls <int>, homes_powered <dbl>, trash_wheel_source <chr>, and
## #   abbreviated variable names ¹​volume_cubic_yards, ²​plastic_bottles,
## #   ³​polystyrene
```

``` r
pro_trash_wheel = 
  readxl::read_excel("./data/Trash Wheel Collection Data.xlsx",
             sheet = "Professor Trash Wheel", range = "A2:M97") %>%
    janitor::clean_names() %>%
  filter(dumpster >= 1) %>%
  mutate(trash_wheel_source = "Professor") %>% 
  mutate(year = as.character(year))

pro_trash_wheel
## # A tibble: 94 × 14
##    dumpster month    year  date                weight_…¹ volum…² plast…³ polys…⁴
##       <dbl> <chr>    <chr> <dttm>                  <dbl>   <dbl>   <dbl>   <dbl>
##  1        1 January  2017  2017-01-02 00:00:00      1.79      15    1950    6080
##  2        2 January  2017  2017-01-30 00:00:00      1.58      15    9540   11230
##  3        3 February 2017  2017-02-26 00:00:00      2.32      18    8350    9210
##  4        4 February 2017  2017-02-26 00:00:00      3.72      15    8590    1030
##  5        5 February 2017  2017-02-28 00:00:00      1.45      15    7830    9950
##  6        6 March    2017  2017-03-30 00:00:00      1.71      15    8210   10340
##  7        7 April    2017  2017-04-01 00:00:00      1.82      15    9830   11020
##  8        8 April    2017  2017-04-20 00:00:00      2.37      15    9240    8760
##  9        9 May      2017  2017-05-10 00:00:00      2.64      15    9540    8810
## 10       10 May      2017  2017-05-26 00:00:00      2.78      15    8230    7800
## # … with 84 more rows, 6 more variables: cigarette_butts <dbl>,
## #   glass_bottles <dbl>, grocery_bags <dbl>, chip_bags <dbl>,
## #   homes_powered <dbl>, trash_wheel_source <chr>, and abbreviated variable
## #   names ¹​weight_tons, ²​volume_cubic_yards, ³​plastic_bottles, ⁴​polystyrene
```

### Join Two Dataset

``` r
trash_wheel_data = 
  full_join(mr_trash_wheel, pro_trash_wheel, by  = c('dumpster','month','year','date','weight_tons','volume_cubic_yards','plastic_bottles','polystyrene','cigarette_butts','glass_bottles', 'grocery_bags', 'chip_bags', 'homes_powered', 'trash_wheel_source'))

trash_wheel_data
## # A tibble: 641 × 15
##    dumpster month year  date                weight_tons volume…¹ plast…² polys…³
##       <dbl> <chr> <chr> <dttm>                    <dbl>    <dbl>   <dbl>   <dbl>
##  1        1 May   2014  2014-05-16 00:00:00        4.31       18    1450    1820
##  2        2 May   2014  2014-05-16 00:00:00        2.74       13    1120    1030
##  3        3 May   2014  2014-05-16 00:00:00        3.45       15    2450    3100
##  4        4 May   2014  2014-05-17 00:00:00        3.1        15    2380    2730
##  5        5 May   2014  2014-05-17 00:00:00        4.06       18     980     870
##  6        6 May   2014  2014-05-20 00:00:00        2.71       13    1430    2140
##  7        7 May   2014  2014-05-21 00:00:00        1.91        8     910    1090
##  8        8 May   2014  2014-05-28 00:00:00        3.7        16    3580    4310
##  9        9 June  2014  2014-06-05 00:00:00        2.52       14    2400    2790
## 10       10 June  2014  2014-06-11 00:00:00        3.76       18    1340    1730
## # … with 631 more rows, 7 more variables: cigarette_butts <dbl>,
## #   glass_bottles <dbl>, grocery_bags <dbl>, chip_bags <dbl>,
## #   sports_balls <int>, homes_powered <dbl>, trash_wheel_source <chr>, and
## #   abbreviated variable names ¹​volume_cubic_yards, ²​plastic_bottles,
## #   ³​polystyrene
```

### Answer Questions

In the resulting dataset, there are 641 observations. As an example, the
variable “dumpster” has 641 641 observations, of which 547 are from the
“Mr. Trash Wheel” dataset and the remaining 94 from the “Professor Trash
Wheel” dataset.

``` r
trash_wheel_data %>% 
  select(dumpster, trash_wheel_source) %>% 
  distinct()
## # A tibble: 641 × 2
##    dumpster trash_wheel_source
##       <dbl> <chr>             
##  1        1 Mr.               
##  2        2 Mr.               
##  3        3 Mr.               
##  4        4 Mr.               
##  5        5 Mr.               
##  6        6 Mr.               
##  7        7 Mr.               
##  8        8 Mr.               
##  9        9 Mr.               
## 10       10 Mr.               
## # … with 631 more rows

trash_wheel_data %>% 
  filter(trash_wheel_source == "Mr.") %>% 
  select(dumpster, trash_wheel_source) %>% 
  distinct()
## # A tibble: 547 × 2
##    dumpster trash_wheel_source
##       <dbl> <chr>             
##  1        1 Mr.               
##  2        2 Mr.               
##  3        3 Mr.               
##  4        4 Mr.               
##  5        5 Mr.               
##  6        6 Mr.               
##  7        7 Mr.               
##  8        8 Mr.               
##  9        9 Mr.               
## 10       10 Mr.               
## # … with 537 more rows

trash_wheel_data %>% 
  filter(trash_wheel_source == "Professor") %>% 
  select(dumpster, trash_wheel_source) %>% 
  distinct()
## # A tibble: 94 × 2
##    dumpster trash_wheel_source
##       <dbl> <chr>             
##  1        1 Professor         
##  2        2 Professor         
##  3        3 Professor         
##  4        4 Professor         
##  5        5 Professor         
##  6        6 Professor         
##  7        7 Professor         
##  8        8 Professor         
##  9        9 Professor         
## 10       10 Professor         
## # … with 84 more rows
```
…
